{
    "devices": [
        {
            "formFactor": "PHONE", 
            "name": "Apple iPhone 6 Plus", 
            "remoteAccessEnabled": false, 
            "resolution": {
                "width": 1080, 
                "height": 1920
            }, 
            "image": "352FDCFAA36C43AC8228DC8F23355272", 
            "remoteDebugEnabled": false, 
            "fleetType": "PUBLIC", 
            "platform": "IOS", 
            "heapSize": 0, 
            "availability": "AVAILABLE", 
            "memory": 16000000000, 
            "model": "iPhone 6 Plus", 
            "manufacturer": "Apple", 
            "os": "10.0.2", 
            "cpu": {
                "frequency": "Hz", 
                "architecture": "arm64", 
                "clock": 0.0
            }, 
            "arn": "arn:aws:devicefarm:us-west-2::device:352FDCFAA36C43AC8228DC8F23355272", 
            "modelId": "A1522"
        }, 
        {
            "formFactor": "PHONE", 
            "name": "Apple iPhone 7 Plus", 
            "remoteAccessEnabled": false, 
            "resolution": {
                "width": 1080, 
                "height": 1920
            }, 
            "image": "5BF61FBF6FDA465EB4BE75C879918585", 
            "remoteDebugEnabled": false, 
            "fleetType": "PUBLIC", 
            "platform": "IOS", 
            "heapSize": 0, 
            "availability": "AVAILABLE", 
            "memory": 32000000000, 
            "model": "iPhone 7 Plus", 
            "manufacturer": "Apple", 
            "os": "10.2", 
            "cpu": {
                "frequency": "Hz", 
                "architecture": "arm64", 
                "clock": 0.0
            }, 
            "arn": "arn:aws:devicefarm:us-west-2::device:5BF61FBF6FDA465EB4BE75C879918585", 
            "modelId": "{A1661,MNR12}"
        }, 
        {
            "formFactor": "TABLET", 
            "name": "Apple iPad 7th Gen (2019)", 
            "remoteAccessEnabled": false, 
            "resolution": {
                "width": 1620, 
                "height": 2160
            }, 
            "image": "1F53A837E7514BBE9EA0466BC21F2FA6", 
            "remoteDebugEnabled": false, 
            "fleetType": "PUBLIC", 
            "platform": "IOS", 
            "heapSize": 0, 
            "availability": "AVAILABLE", 
            "memory": 328000000000, 
            "model": "Apple iPad 7th Gen (2019)", 
            "manufacturer": "Apple", 
            "os": "13.3", 
            "cpu": {
                "frequency": "Hz", 
                "architecture": "arm64", 
                "clock": 0.0
            }, 
            "arn": "arn:aws:devicefarm:us-west-2::device:1F53A837E7514BBE9EA0466BC21F2FA6", 
            "modelId": "MW742LL/A"
        }, 
        {
            "formFactor": "TABLET", 
            "name": "Apple iPad Air 2", 
            "remoteAccessEnabled": false, 
            "resolution": {
                "width": 1536, 
                "height": 2048
            }, 
            "image": "8858FB933F89482DA106A632D4F0CD91", 
            "remoteDebugEnabled": false, 
            "fleetType": "PUBLIC", 
            "platform": "IOS", 
            "heapSize": 0, 
            "availability": "HIGHLY_AVAILABLE", 
            "memory": 16000000000, 
            "model": "iPad Air 2", 
            "manufacturer": "Apple", 
            "os": "10.0.2", 
            "cpu": {
                "frequency": "Hz", 
                "architecture": "arm64", 
                "clock": 0.0
            }, 
            "arn": "arn:aws:devicefarm:us-west-2::device:8858FB933F89482DA106A632D4F0CD91", 
            "modelId": "A1566"
        }, 
        {
            "formFactor": "PHONE", 
            "name": "Apple iPhone 6", 
            "remoteAccessEnabled": false, 
            "resolution": {
                "width": 750, 
                "height": 1334
            }, 
            "image": "7A8C654EDC154EF49A192D21A1529B6C", 
            "remoteDebugEnabled": false, 
            "fleetType": "PUBLIC", 
            "platform": "IOS", 
            "heapSize": 0, 
            "availability": "AVAILABLE", 
            "memory": 16000000000, 
            "model": "iPhone 6", 
            "manufacturer": "Apple", 
            "os": "10.3.1", 
            "cpu": {
                "frequency": "Hz", 
                "architecture": "arm64", 
                "clock": 0.0
            }, 
            "arn": "arn:aws:devicefarm:us-west-2::device:7A8C654EDC154EF49A192D21A1529B6C", 
            "modelId": "A1549"
        }, 
        {
            "formFactor": "PHONE", 
            "name": "Apple iPhone 7 Plus", 
            "remoteAccessEnabled": false, 
            "resolution": {
                "width": 1080, 
                "height": 1920
            }, 
            "image": "3C79768CF74046CB97AFA25E60C2DC25", 
            "remoteDebugEnabled": false, 
            "fleetType": "PUBLIC", 
            "platform": "IOS", 
            "heapSize": 0, 
            "availability": "HIGHLY_AVAILABLE", 
            "memory": 128000000000, 
            "model": "iPhone 7 Plus", 
            "manufacturer": "Apple", 
            "os": "10.3.3", 
            "cpu": {
                "frequency": "Hz", 
                "architecture": "arm64", 
                "clock": 0.0
            }, 
            "arn": "arn:aws:devicefarm:us-west-2::device:3C79768CF74046CB97AFA25E60C2DC25", 
            "modelId": "A1661"
        }, 
        {
            "formFactor": "PHONE", 
            "name": "Apple iPhone 6s", 
            "remoteAccessEnabled": false, 
            "resolution": {
                "width": 750, 
                "height": 1334
            }, 
            "image": "52F41ABF92094017B3BAE8EBEEAD9960", 
            "remoteDebugEnabled": false, 
            "fleetType": "PUBLIC", 
            "platform": "IOS", 
            "heapSize": 0, 
            "availability": "AVAILABLE", 
            "memory": 16000000000, 
            "model": "iPhone 6s", 
            "manufacturer": "Apple", 
            "os": "10.1", 
            "cpu": {
                "frequency": "Hz", 
                "architecture": "arm64", 
                "clock": 0.0
            }, 
            "arn": "arn:aws:devicefarm:us-west-2::device:52F41ABF92094017B3BAE8EBEEAD9960", 
            "modelId": "A1633"
        }, 
        {
            "formFactor": "TABLET", 
            "name": "Apple iPad 2", 
            "remoteAccessEnabled": true, 
            "resolution": {
                "width": 768, 
                "height": 1024
            }, 
            "image": "B1A102DAD97742F49201E0D7EE51E3E2", 
            "remoteDebugEnabled": false, 
            "fleetType": "PUBLIC", 
            "platform": "IOS", 
            "heapSize": 0, 
            "availability": "HIGHLY_AVAILABLE", 
            "memory": 32000000000, 
            "model": "iPad 2", 
            "manufacturer": "Apple", 
            "os": "9.3.5", 
            "cpu": {
                "frequency": "Hz", 
                "architecture": "armv7f", 
                "clock": 0.0
            }, 
            "arn": "arn:aws:devicefarm:us-west-2::device:B1A102DAD97742F49201E0D7EE51E3E2", 
            "modelId": "A1395"
        }, 
        {
            "formFactor": "PHONE", 
            "name": "Apple iPhone X", 
            "remoteAccessEnabled": true, 
            "resolution": {
                "width": 1125, 
                "height": 2436
            }, 
            "image": "D125AEEE8614463BAE106865CAF4470E", 
            "remoteDebugEnabled": false, 
            "fleetType": "PUBLIC", 
            "platform": "IOS", 
            "heapSize": 0, 
            "availability": "AVAILABLE", 
            "memory": 256000000000, 
            "model": "iPhone X", 
            "manufacturer": "Apple", 
            "os": "12.0", 
            "cpu": {
                "frequency": "Hz", 
                "architecture": "arm64", 
                "clock": 0.0
            }, 
            "arn": "arn:aws:devicefarm:us-west-2::device:D125AEEE8614463BAE106865CAF4470E", 
            "modelId": "A1865"
        }, 
        {
            "formFactor": "PHONE", 
            "name": "Apple iPhone 5s", 
            "remoteAccessEnabled": false, 
            "resolution": {
                "width": 640, 
                "height": 1136
            }, 
            "image": "F56D5030448046428070FA637158B614", 
            "remoteDebugEnabled": false, 
            "fleetType": "PUBLIC", 
            "platform": "IOS", 
            "heapSize": 0, 
            "availability": "AVAILABLE", 
            "memory": 16000000000, 
            "model": "iPhone 5s", 
            "manufacturer": "Apple", 
            "os": "10.0.2", 
            "cpu": {
                "frequency": "Hz", 
                "architecture": "arm64", 
                "clock": 0.0
            }, 
            "arn": "arn:aws:devicefarm:us-west-2::device:F56D5030448046428070FA637158B614", 
            "modelId": "A1533"
        }, 
        {
            "formFactor": "PHONE", 
            "name": "Apple iPhone 5s", 
            "remoteAccessEnabled": false, 
            "resolution": {
                "width": 640, 
                "height": 1136
            }, 
            "image": "A7CCFD183C314CE2B44B0BB284AAEA0A", 
            "remoteDebugEnabled": false, 
            "fleetType": "PUBLIC", 
            "platform": "IOS", 
            "heapSize": 0, 
            "availability": "HIGHLY_AVAILABLE", 
            "memory": 16000000000, 
            "model": "iPhone 5s", 
            "manufacturer": "Apple", 
            "os": "11.1", 
            "cpu": {
                "frequency": "Hz", 
                "architecture": "arm64", 
                "clock": 0.0
            }, 
            "arn": "arn:aws:devicefarm:us-west-2::device:A7CCFD183C314CE2B44B0BB284AAEA0A", 
            "modelId": "A1533"
        }, 
        {
            "formFactor": "PHONE", 
            "name": "Apple iPhone 5s", 
            "remoteAccessEnabled": false, 
            "resolution": {
                "width": 640, 
                "height": 1136
            }, 
            "image": "A22709D280D1477992B7C88190170BB5", 
            "remoteDebugEnabled": false, 
            "fleetType": "PUBLIC", 
            "platform": "IOS", 
            "heapSize": 0, 
            "availability": "AVAILABLE", 
            "memory": 16000000000, 
            "model": "iPhone 5s", 
            "manufacturer": "Apple", 
            "os": "10.1", 
            "cpu": {
                "frequency": "Hz", 
                "architecture": "arm64", 
                "clock": 0.0
            }, 
            "arn": "arn:aws:devicefarm:us-west-2::device:A22709D280D1477992B7C88190170BB5", 
            "modelId": "A1533"
        }, 
        {
            "formFactor": "PHONE", 
            "name": "Apple iPhone 8 Plus", 
            "remoteAccessEnabled": true, 
            "resolution": {
                "width": 1080, 
                "height": 1920
            }, 
            "image": "D89BB79517414C5E89ED1A98FEFC9D7A", 
            "remoteDebugEnabled": false, 
            "fleetType": "PUBLIC", 
            "platform": "IOS", 
            "heapSize": 0, 
            "availability": "AVAILABLE", 
            "memory": 64000000000, 
            "model": "iPhone 8 Plus", 
            "manufacturer": "Apple", 
            "os": "12.1", 
            "cpu": {
                "frequency": "Hz", 
                "architecture": "arm64", 
                "clock": 0.0
            }, 
            "arn": "arn:aws:devicefarm:us-west-2::device:D89BB79517414C5E89ED1A98FEFC9D7A", 
            "modelId": "A1864"
        }, 
        {
            "formFactor": "PHONE", 
            "name": "Apple iPhone 6", 
            "remoteAccessEnabled": false, 
            "resolution": {
                "width": 750, 
                "height": 1334
            }, 
            "image": "43D86FE6BFD747EF93303912E807817B", 
            "remoteDebugEnabled": false, 
            "fleetType": "PUBLIC", 
            "platform": "IOS", 
            "heapSize": 0, 
            "availability": "HIGHLY_AVAILABLE", 
            "memory": 16000000000, 
            "model": "iPhone 6", 
            "manufacturer": "Apple", 
            "os": "11.0", 
            "cpu": {
                "frequency": "Hz", 
                "architecture": "arm64", 
                "clock": 0.0
            }, 
            "arn": "arn:aws:devicefarm:us-west-2::device:43D86FE6BFD747EF93303912E807817B", 
            "modelId": "A1549"
        }, 
        {
            "formFactor": "PHONE", 
            "name": "Apple iPhone 6s", 
            "remoteAccessEnabled": false, 
            "resolution": {
                "width": 750, 
                "height": 1334
            }, 
            "image": "6331063BDC3D47E89107DAEA472A96F0", 
            "remoteDebugEnabled": false, 
            "fleetType": "PUBLIC", 
            "platform": "IOS", 
            "heapSize": 0, 
            "availability": "AVAILABLE", 
            "memory": 16000000000, 
            "model": "iPhone 6s", 
            "manufacturer": "Apple", 
            "os": "10.2", 
            "cpu": {
                "frequency": "Hz", 
                "architecture": "arm64", 
                "clock": 0.0
            }, 
            "arn": "arn:aws:devicefarm:us-west-2::device:6331063BDC3D47E89107DAEA472A96F0", 
            "modelId": "A1633"
        }, 
        {
            "formFactor": "PHONE", 
            "name": "Apple iPhone 6", 
            "remoteAccessEnabled": false, 
            "resolution": {
                "width": 750, 
                "height": 1334
            }, 
            "image": "1725E05DC87A4188A13A8F6F31ED1A75", 
            "remoteDebugEnabled": false, 
            "fleetType": "PUBLIC", 
            "platform": "IOS", 
            "heapSize": 0, 
            "availability": "AVAILABLE", 
            "memory": 16000000000, 
            "model": "iPhone 6", 
            "manufacturer": "Apple", 
            "os": "10.0.2", 
            "cpu": {
                "frequency": "Hz", 
                "architecture": "arm64", 
                "clock": 0.0
            }, 
            "arn": "arn:aws:devicefarm:us-west-2::device:1725E05DC87A4188A13A8F6F31ED1A75", 
            "modelId": "{A1549,MG3C2}"
        }, 
        {
            "formFactor": "PHONE", 
            "name": "Apple iPhone 7", 
            "remoteAccessEnabled": false, 
            "resolution": {
                "width": 750, 
                "height": 1334
            }, 
            "image": "ADA99E0933754E12B325CF109C4E3C5A", 
            "remoteDebugEnabled": false, 
            "fleetType": "PUBLIC", 
            "platform": "IOS", 
            "heapSize": 0, 
            "availability": "AVAILABLE", 
            "memory": 32000000000, 
            "model": "iPhone 7", 
            "manufacturer": "Apple", 
            "os": "10.1", 
            "cpu": {
                "frequency": "Hz", 
                "architecture": "arm64", 
                "clock": 0.0
            }, 
            "arn": "arn:aws:devicefarm:us-west-2::device:ADA99E0933754E12B325CF109C4E3C5A", 
            "modelId": "A1660"
        }, 
        {
            "formFactor": "TABLET", 
            "name": "Apple iPad Air", 
            "remoteAccessEnabled": true, 
            "resolution": {
                "width": 1536, 
                "height": 2048
            }, 
            "image": "9FCDBA42AFDE4A87855A8B204CF9E09C", 
            "remoteDebugEnabled": false, 
            "fleetType": "PUBLIC", 
            "platform": "IOS", 
            "heapSize": 0, 
            "availability": "AVAILABLE", 
            "memory": 16000000000, 
            "model": "iPad Air", 
            "manufacturer": "Apple", 
            "os": "9.3.2", 
            "cpu": {
                "frequency": "Hz", 
                "architecture": "arm64", 
                "clock": 0.0
            }, 
            "arn": "arn:aws:devicefarm:us-west-2::device:9FCDBA42AFDE4A87855A8B204CF9E09C", 
            "modelId": "A1474"
        }, 
        {
            "formFactor": "PHONE", 
            "name": "Apple iPhone 6 Plus", 
            "remoteAccessEnabled": false, 
            "resolution": {
                "width": 1080, 
                "height": 1920
            }, 
            "image": "258D1D53657C4FCFB6623970575062B5", 
            "remoteDebugEnabled": false, 
            "fleetType": "PUBLIC", 
            "platform": "IOS", 
            "heapSize": 0, 
            "availability": "HIGHLY_AVAILABLE", 
            "memory": 16000000000, 
            "model": "iPhone 6 Plus", 
            "manufacturer": "Apple", 
            "os": "11.4.1", 
            "cpu": {
                "frequency": "Hz", 
                "architecture": "arm64", 
                "clock": 0.0
            }, 
            "arn": "arn:aws:devicefarm:us-west-2::device:258D1D53657C4FCFB6623970575062B5", 
            "modelId": "A1522"
        }, 
        {
            "formFactor": "PHONE", 
            "name": "Apple iPhone 6 Plus", 
            "remoteAccessEnabled": false, 
            "resolution": {
                "width": 1080, 
                "height": 1920
            }, 
            "image": "416C47DEFAAE42DA9A4CF17E9E07AB49", 
            "remoteDebugEnabled": false, 
            "fleetType": "PUBLIC", 
            "platform": "IOS", 
            "heapSize": 0, 
            "availability": "AVAILABLE", 
            "memory": 16000000000, 
            "model": "iPhone 6 Plus", 
            "manufacturer": "Apple", 
            "os": "9.3.2", 
            "cpu": {
                "frequency": "Hz", 
                "architecture": "arm64", 
                "clock": 0.0
            }, 
            "arn": "arn:aws:devicefarm:us-west-2::device:416C47DEFAAE42DA9A4CF17E9E07AB49", 
            "modelId": "A1522"
        }, 
        {
            "formFactor": "PHONE", 
            "name": "Apple iPhone 7 Plus", 
            "remoteAccessEnabled": false, 
            "resolution": {
                "width": 1080, 
                "height": 1920
            }, 
            "image": "C849820BE3394DD89088FF1D94BBE449", 
            "remoteDebugEnabled": false, 
            "fleetType": "PUBLIC", 
            "platform": "IOS", 
            "heapSize": 0, 
            "availability": "HIGHLY_AVAILABLE", 
            "memory": 32000000000, 
            "model": "iPhone 7 Plus", 
            "manufacturer": "Apple", 
            "os": "11.0", 
            "cpu": {
                "frequency": "Hz", 
                "architecture": "arm64", 
                "clock": 0.0
            }, 
            "arn": "arn:aws:devicefarm:us-west-2::device:C849820BE3394DD89088FF1D94BBE449", 
            "modelId": "A1784"
        }, 
        {
            "formFactor": "TABLET", 
            "name": "Apple iPad Air", 
            "remoteAccessEnabled": false, 
            "resolution": {
                "width": 1536, 
                "height": 2048
            }, 
            "image": "96434EAB542D4D549C41D82F7F834355", 
            "remoteDebugEnabled": false, 
            "fleetType": "PUBLIC", 
            "platform": "IOS", 
            "heapSize": 0, 
            "availability": "HIGHLY_AVAILABLE", 
            "memory": 16000000000, 
            "model": "iPad Air", 
            "manufacturer": "Apple", 
            "os": "10.3.3", 
            "cpu": {
                "frequency": "Hz", 
                "architecture": "arm64", 
                "clock": 0.0
            }, 
            "arn": "arn:aws:devicefarm:us-west-2::device:96434EAB542D4D549C41D82F7F834355", 
            "modelId": "A1474"
        }, 
        {
            "formFactor": "PHONE", 
            "name": "Apple iPhone 11", 
            "remoteAccessEnabled": false, 
            "resolution": {
                "width": 828, 
                "height": 1792
            }, 
            "image": "A9AD8EC023394AC2BFC5148593BD6883", 
            "remoteDebugEnabled": false, 
            "fleetType": "PUBLIC", 
            "platform": "IOS", 
            "heapSize": 0, 
            "availability": "HIGHLY_AVAILABLE", 
            "memory": 64000000000, 
            "model": "Apple iPhone 11", 
            "manufacturer": "Apple", 
            "os": "13.3.1", 
            "cpu": {
                "frequency": "Hz", 
                "architecture": "arm64e", 
                "clock": 0.0
            }, 
            "arn": "arn:aws:devicefarm:us-west-2::device:A9AD8EC023394AC2BFC5148593BD6883", 
            "modelId": "MWL72LL/A"
        }, 
        {
            "formFactor": "PHONE", 
            "name": "Apple iPhone 7", 
            "remoteAccessEnabled": false, 
            "resolution": {
                "width": 750, 
                "height": 1334
            }, 
            "image": "D3721D7B45204C78A70680AB9219C11A", 
            "remoteDebugEnabled": false, 
            "fleetType": "PUBLIC", 
            "platform": "IOS", 
            "heapSize": 0, 
            "availability": "AVAILABLE", 
            "memory": 32000000000, 
            "model": "iPhone 7", 
            "manufacturer": "Apple", 
            "os": "11.4", 
            "cpu": {
                "frequency": "Hz", 
                "architecture": "arm64", 
                "clock": 0.0
            }, 
            "arn": "arn:aws:devicefarm:us-west-2::device:D3721D7B45204C78A70680AB9219C11A", 
            "modelId": "A1660"
        }, 
        {
            "formFactor": "TABLET", 
            "name": "Apple iPad Air 2", 
            "remoteAccessEnabled": false, 
            "resolution": {
                "width": 1536, 
                "height": 2048
            }, 
            "image": "4F74D943F7594EFF96957E238B3CA131", 
            "remoteDebugEnabled": false, 
            "fleetType": "PUBLIC", 
            "platform": "IOS", 
            "heapSize": 0, 
            "availability": "HIGHLY_AVAILABLE", 
            "memory": 16000000000, 
            "model": "iPad Air 2", 
            "manufacturer": "Apple", 
            "os": "11.1", 
            "cpu": {
                "frequency": "Hz", 
                "architecture": "arm64", 
                "clock": 0.0
            }, 
            "arn": "arn:aws:devicefarm:us-west-2::device:4F74D943F7594EFF96957E238B3CA131", 
            "modelId": "A1566"
        }, 
        {
            "formFactor": "PHONE", 
            "name": "Apple iPhone 5s", 
            "remoteAccessEnabled": false, 
            "resolution": {
                "width": 640, 
                "height": 1136
            }, 
            "image": "A04588C5CBCE4E7F987F6FC44A41111F", 
            "remoteDebugEnabled": false, 
            "fleetType": "PUBLIC", 
            "platform": "IOS", 
            "heapSize": 0, 
            "availability": "HIGHLY_AVAILABLE", 
            "memory": 16000000000, 
            "model": "iPhone 5s", 
            "manufacturer": "Apple", 
            "os": "10.2", 
            "cpu": {
                "frequency": "Hz", 
                "architecture": "arm64", 
                "clock": 0.0
            }, 
            "arn": "arn:aws:devicefarm:us-west-2::device:A04588C5CBCE4E7F987F6FC44A41111F", 
            "modelId": "A1533"
        }, 
        {
            "formFactor": "PHONE", 
            "name": "Apple iPhone 7", 
            "remoteAccessEnabled": false, 
            "resolution": {
                "width": 750, 
                "height": 1334
            }, 
            "image": "0E97C49808444669822B2FDC30B1925A", 
            "remoteDebugEnabled": false, 
            "fleetType": "PUBLIC", 
            "platform": "IOS", 
            "heapSize": 0, 
            "availability": "TEMPORARY_NOT_AVAILABLE", 
            "memory": 32000000000, 
            "model": "iPhone 7", 
            "manufacturer": "Apple", 
            "os": "10.2", 
            "cpu": {
                "frequency": "Hz", 
                "architecture": "arm64", 
                "clock": 0.0
            }, 
            "arn": "arn:aws:devicefarm:us-west-2::device:0E97C49808444669822B2FDC30B1925A", 
            "modelId": "A1660"
        }, 
        {
            "formFactor": "PHONE", 
            "name": "Apple iPhone 5s", 
            "remoteAccessEnabled": false, 
            "resolution": {
                "width": 640, 
                "height": 1136
            }, 
            "image": "7F99C47E4C364990A640B779F716DFE2", 
            "remoteDebugEnabled": false, 
            "fleetType": "PUBLIC", 
            "platform": "IOS", 
            "heapSize": 0, 
            "availability": "AVAILABLE", 
            "memory": 16000000000, 
            "model": "iPhone 5s", 
            "manufacturer": "Apple", 
            "os": "10.3.1", 
            "cpu": {
                "frequency": "Hz", 
                "architecture": "arm64", 
                "clock": 0.0
            }, 
            "arn": "arn:aws:devicefarm:us-west-2::device:7F99C47E4C364990A640B779F716DFE2", 
            "modelId": "A1533"
        }, 
        {
            "formFactor": "PHONE", 
            "name": "Apple iPhone 7 Plus", 
            "remoteAccessEnabled": true, 
            "resolution": {
                "width": 1080, 
                "height": 1920
            }, 
            "image": "8D73A7D0936C443190548D95CD7016FE", 
            "remoteDebugEnabled": false, 
            "fleetType": "PUBLIC", 
            "platform": "IOS", 
            "heapSize": 0, 
            "availability": "AVAILABLE", 
            "memory": 32000000000, 
            "model": "iPhone 7 Plus", 
            "manufacturer": "Apple", 
            "os": "10.3.2", 
            "cpu": {
                "frequency": "Hz", 
                "architecture": "arm64", 
                "clock": 0.0
            }, 
            "arn": "arn:aws:devicefarm:us-west-2::device:8D73A7D0936C443190548D95CD7016FE", 
            "modelId": "{A1661,MNR12}"
        }, 
        {
            "formFactor": "PHONE", 
            "name": "Apple iPhone XR", 
            "remoteAccessEnabled": true, 
            "resolution": {
                "width": 828, 
                "height": 1792
            }, 
            "image": "7FCC95F6737A434B9896FF77DA9E2DB6", 
            "remoteDebugEnabled": false, 
            "fleetType": "PUBLIC", 
            "platform": "IOS", 
            "heapSize": 0, 
            "availability": "HIGHLY_AVAILABLE", 
            "memory": 64000000000, 
            "model": "iPhone XR", 
            "manufacturer": "Apple", 
            "os": "12.0", 
            "cpu": {
                "frequency": "Hz", 
                "architecture": "arm64e", 
                "clock": 0.0
            }, 
            "arn": "arn:aws:devicefarm:us-west-2::device:7FCC95F6737A434B9896FF77DA9E2DB6", 
            "modelId": "{MT2K2,MT3K2,MT3L2,MT3Q2,MT3R2}"
        }, 
        {
            "formFactor": "TABLET", 
            "name": "Apple iPad Air", 
            "remoteAccessEnabled": false, 
            "resolution": {
                "width": 1536, 
                "height": 2048
            }, 
            "image": "40A834296E75430EAE537A819A04E43A", 
            "remoteDebugEnabled": false, 
            "fleetType": "PUBLIC", 
            "platform": "IOS", 
            "heapSize": 0, 
            "availability": "HIGHLY_AVAILABLE", 
            "memory": 16000000000, 
            "model": "iPad Air", 
            "manufacturer": "Apple", 
            "os": "10.3.1", 
            "cpu": {
                "frequency": "Hz", 
                "architecture": "arm64", 
                "clock": 0.0
            }, 
            "arn": "arn:aws:devicefarm:us-west-2::device:40A834296E75430EAE537A819A04E43A", 
            "modelId": "A1474"
        }, 
        {
            "formFactor": "PHONE", 
            "name": "Apple iPhone 8", 
            "remoteAccessEnabled": false, 
            "resolution": {
                "width": 750, 
                "height": 1334
            }, 
            "image": "AF74786682D3407D89BD16557FEE97A9", 
            "remoteDebugEnabled": false, 
            "fleetType": "PUBLIC", 
            "platform": "IOS", 
            "heapSize": 0, 
            "availability": "HIGHLY_AVAILABLE", 
            "memory": 64000000000, 
            "model": "iPhone 8", 
            "manufacturer": "Apple", 
            "os": "12.0", 
            "cpu": {
                "frequency": "Hz", 
                "architecture": "arm64", 
                "clock": 0.0
            }, 
            "arn": "arn:aws:devicefarm:us-west-2::device:AF74786682D3407D89BD16557FEE97A9", 
            "modelId": "A1863"
        }, 
        {
            "formFactor": "PHONE", 
            "name": "Apple iPhone 7", 
            "remoteAccessEnabled": true, 
            "resolution": {
                "width": 750, 
                "height": 1334
            }, 
            "image": "FCEB5CC82DD6436A89AD2F96B7E08C82", 
            "remoteDebugEnabled": false, 
            "fleetType": "PUBLIC", 
            "platform": "IOS", 
            "heapSize": 0, 
            "availability": "HIGHLY_AVAILABLE", 
            "memory": 128000000000, 
            "model": "iPhone 7", 
            "manufacturer": "Apple", 
            "os": "10.3.3", 
            "cpu": {
                "frequency": "Hz", 
                "architecture": "arm64", 
                "clock": 0.0
            }, 
            "arn": "arn:aws:devicefarm:us-west-2::device:FCEB5CC82DD6436A89AD2F96B7E08C82", 
            "modelId": "A1660"
        }, 
        {
            "formFactor": "PHONE", 
            "name": "Apple iPhone 6 Plus", 
            "remoteAccessEnabled": false, 
            "resolution": {
                "width": 1080, 
                "height": 1920
            }, 
            "image": "482996A8DD054B76B3511BEBB41B5943", 
            "remoteDebugEnabled": false, 
            "fleetType": "PUBLIC", 
            "platform": "IOS", 
            "heapSize": 0, 
            "availability": "AVAILABLE", 
            "memory": 16000000000, 
            "model": "iPhone 6 Plus", 
            "manufacturer": "Apple", 
            "os": "10.1", 
            "cpu": {
                "frequency": "Hz", 
                "architecture": "arm64", 
                "clock": 0.0
            }, 
            "arn": "arn:aws:devicefarm:us-west-2::device:482996A8DD054B76B3511BEBB41B5943", 
            "modelId": "A1522"
        }, 
        {
            "formFactor": "PHONE", 
            "name": "Apple iPhone 11 Pro Max", 
            "remoteAccessEnabled": true, 
            "resolution": {
                "width": 1242, 
                "height": 2688
            }, 
            "image": "8DCCC145A8A54191B61C6EF67F27F507", 
            "remoteDebugEnabled": true, 
            "fleetType": "PUBLIC", 
            "platform": "IOS", 
            "heapSize": 0, 
            "availability": "HIGHLY_AVAILABLE", 
            "memory": 64000000000, 
            "model": "Apple iPhone 11 Pro Max", 
            "manufacturer": "Apple", 
            "os": "13.1.3", 
            "cpu": {
                "frequency": "Hz", 
                "architecture": "arm64e", 
                "clock": 0.0
            }, 
            "arn": "arn:aws:devicefarm:us-west-2::device:8DCCC145A8A54191B61C6EF67F27F507", 
            "modelId": "MWGY2LL/A"
        }, 
        {
            "formFactor": "PHONE", 
            "name": "Apple iPhone XS Max", 
            "remoteAccessEnabled": true, 
            "resolution": {
                "width": 1242, 
                "height": 2688
            }, 
            "image": "F4A92C7101524540AB9E17F2857551D4", 
            "remoteDebugEnabled": false, 
            "fleetType": "PUBLIC", 
            "platform": "IOS", 
            "heapSize": 0, 
            "availability": "BUSY", 
            "memory": 64000000000, 
            "model": "iPhone XS Max", 
            "manufacturer": "Apple", 
            "os": "12.1", 
            "cpu": {
                "frequency": "Hz", 
                "architecture": "arm64e", 
                "clock": 0.0
            }, 
            "arn": "arn:aws:devicefarm:us-west-2::device:F4A92C7101524540AB9E17F2857551D4", 
            "modelId": "{MT6F2,MT672,MT592,MT5X2,MT5C2}"
        }, 
        {
            "formFactor": "PHONE", 
            "name": "Apple iPhone 6s", 
            "remoteAccessEnabled": false, 
            "resolution": {
                "width": 750, 
                "height": 1334
            }, 
            "image": "18DC5768ADB1496C98BB64615F586BB6", 
            "remoteDebugEnabled": false, 
            "fleetType": "PUBLIC", 
            "platform": "IOS", 
            "heapSize": 0, 
            "availability": "AVAILABLE", 
            "memory": 16000000000, 
            "model": "iPhone 6s", 
            "manufacturer": "Apple", 
            "os": "11.0", 
            "cpu": {
                "frequency": "Hz", 
                "architecture": "arm64", 
                "clock": 0.0
            }, 
            "arn": "arn:aws:devicefarm:us-west-2::device:18DC5768ADB1496C98BB64615F586BB6", 
            "modelId": "A1633"
        }, 
        {
            "formFactor": "PHONE", 
            "name": "Apple iPhone 6", 
            "remoteAccessEnabled": false, 
            "resolution": {
                "width": 750, 
                "height": 1334
            }, 
            "image": "B5263F770A494C9DA599430280F2C417", 
            "remoteDebugEnabled": false, 
            "fleetType": "PUBLIC", 
            "platform": "IOS", 
            "heapSize": 0, 
            "availability": "AVAILABLE", 
            "memory": 64000000000, 
            "model": "iPhone 6", 
            "manufacturer": "Apple", 
            "os": "10.1", 
            "cpu": {
                "frequency": "Hz", 
                "architecture": "arm64", 
                "clock": 0.0
            }, 
            "arn": "arn:aws:devicefarm:us-west-2::device:B5263F770A494C9DA599430280F2C417", 
            "modelId": "A1549"
        }, 
        {
            "formFactor": "TABLET", 
            "name": "Apple iPad Air", 
            "remoteAccessEnabled": false, 
            "resolution": {
                "width": 1536, 
                "height": 2048
            }, 
            "image": "1D80770E956543E89D71FBC8FE2F6203", 
            "remoteDebugEnabled": false, 
            "fleetType": "PUBLIC", 
            "platform": "IOS", 
            "heapSize": 0, 
            "availability": "HIGHLY_AVAILABLE", 
            "memory": 16000000000, 
            "model": "iPad Air", 
            "manufacturer": "Apple", 
            "os": "10.0.2", 
            "cpu": {
                "frequency": "Hz", 
                "architecture": "arm64", 
                "clock": 0.0
            }, 
            "arn": "arn:aws:devicefarm:us-west-2::device:1D80770E956543E89D71FBC8FE2F6203", 
            "modelId": "A1474"
        }, 
        {
            "formFactor": "PHONE", 
            "name": "Apple iPhone 7", 
            "remoteAccessEnabled": false, 
            "resolution": {
                "width": 750, 
                "height": 1334
            }, 
            "image": "1AEC6BFEDFA943299F801CB38A289E2E", 
            "remoteDebugEnabled": false, 
            "fleetType": "PUBLIC", 
            "platform": "IOS", 
            "heapSize": 0, 
            "availability": "HIGHLY_AVAILABLE", 
            "memory": 32000000000, 
            "model": "iPhone 7", 
            "manufacturer": "Apple", 
            "os": "11.0", 
            "cpu": {
                "frequency": "Hz", 
                "architecture": "arm64", 
                "clock": 0.0
            }, 
            "arn": "arn:aws:devicefarm:us-west-2::device:1AEC6BFEDFA943299F801CB38A289E2E", 
            "modelId": "A1660"
        }, 
        {
            "formFactor": "PHONE", 
            "name": "Apple iPhone 8", 
            "remoteAccessEnabled": false, 
            "resolution": {
                "width": 750, 
                "height": 1334
            }, 
            "image": "708B6A8C84A84A258F1A0871049455D7", 
            "remoteDebugEnabled": false, 
            "fleetType": "PUBLIC", 
            "platform": "IOS", 
            "heapSize": 0, 
            "availability": "HIGHLY_AVAILABLE", 
            "memory": 64000000000, 
            "model": "iPhone 8", 
            "manufacturer": "Apple", 
            "os": "11.0", 
            "cpu": {
                "frequency": "Hz", 
                "architecture": "arm64", 
                "clock": 0.0
            }, 
            "arn": "arn:aws:devicefarm:us-west-2::device:708B6A8C84A84A258F1A0871049455D7", 
            "modelId": "A1863"
        }, 
        {
            "formFactor": "PHONE", 
            "name": "Apple iPhone 6s Plus", 
            "remoteAccessEnabled": false, 
            "resolution": {
                "width": 1080, 
                "height": 1920
            }, 
            "image": "6ADF393902394E0E96AC6098043A7A8A", 
            "remoteDebugEnabled": false, 
            "fleetType": "PUBLIC", 
            "platform": "IOS", 
            "heapSize": 0, 
            "availability": "HIGHLY_AVAILABLE", 
            "memory": 16000000000, 
            "model": "iPhone 6s Plus", 
            "manufacturer": "Apple", 
            "os": "10.2", 
            "cpu": {
                "frequency": "Hz", 
                "architecture": "arm64", 
                "clock": 0.0
            }, 
            "arn": "arn:aws:devicefarm:us-west-2::device:6ADF393902394E0E96AC6098043A7A8A", 
            "modelId": "A1687"
        }, 
        {
            "formFactor": "PHONE", 
            "name": "Apple iPhone 6 Plus", 
            "remoteAccessEnabled": false, 
            "resolution": {
                "width": 1080, 
                "height": 1920
            }, 
            "image": "4BE9A928E807463EA5DE5403B9A762E8", 
            "remoteDebugEnabled": false, 
            "fleetType": "PUBLIC", 
            "platform": "IOS", 
            "heapSize": 0, 
            "availability": "HIGHLY_AVAILABLE", 
            "memory": 16000000000, 
            "model": "iPhone 6 Plus", 
            "manufacturer": "Apple", 
            "os": "10.2.1", 
            "cpu": {
                "frequency": "Hz", 
                "architecture": "arm64", 
                "clock": 0.0
            }, 
            "arn": "arn:aws:devicefarm:us-west-2::device:4BE9A928E807463EA5DE5403B9A762E8", 
            "modelId": "A1522"
        }, 
        {
            "formFactor": "PHONE", 
            "name": "Apple iPhone 6 Plus", 
            "remoteAccessEnabled": false, 
            "resolution": {
                "width": 1080, 
                "height": 1920
            }, 
            "image": "19525AF4FE0C4AA8ADFEDB81CBDE02B2", 
            "remoteDebugEnabled": false, 
            "fleetType": "PUBLIC", 
            "platform": "IOS", 
            "heapSize": 0, 
            "availability": "AVAILABLE", 
            "memory": 16000000000, 
            "model": "iPhone 6 Plus", 
            "manufacturer": "Apple", 
            "os": "9.3.5", 
            "cpu": {
                "frequency": "Hz", 
                "architecture": "arm64", 
                "clock": 0.0
            }, 
            "arn": "arn:aws:devicefarm:us-west-2::device:19525AF4FE0C4AA8ADFEDB81CBDE02B2", 
            "modelId": "A1522"
        }, 
        {
            "formFactor": "PHONE", 
            "name": "Apple iPhone 7", 
            "remoteAccessEnabled": false, 
            "resolution": {
                "width": 750, 
                "height": 1334
            }, 
            "image": "334A79FA3096423885B15609A1A50E79", 
            "remoteDebugEnabled": false, 
            "fleetType": "PUBLIC", 
            "platform": "IOS", 
            "heapSize": 0, 
            "availability": "HIGHLY_AVAILABLE", 
            "memory": 32000000000, 
            "model": "iPhone 7", 
            "manufacturer": "Apple", 
            "os": "12.0", 
            "cpu": {
                "frequency": "Hz", 
                "architecture": "arm64", 
                "clock": 0.0
            }, 
            "arn": "arn:aws:devicefarm:us-west-2::device:334A79FA3096423885B15609A1A50E79", 
            "modelId": "A1660"
        }, 
        {
            "formFactor": "TABLET", 
            "name": "Apple iPad Air 2", 
            "remoteAccessEnabled": false, 
            "resolution": {
                "width": 1536, 
                "height": 2048
            }, 
            "image": "EA4CA8AACE284AB5B0A69BCAD33DFBAF", 
            "remoteDebugEnabled": false, 
            "fleetType": "PUBLIC", 
            "platform": "IOS", 
            "heapSize": 0, 
            "availability": "AVAILABLE", 
            "memory": 16000000000, 
            "model": "iPad Air 2", 
            "manufacturer": "Apple", 
            "os": "10.2.1", 
            "cpu": {
                "frequency": "Hz", 
                "architecture": "arm64", 
                "clock": 0.0
            }, 
            "arn": "arn:aws:devicefarm:us-west-2::device:EA4CA8AACE284AB5B0A69BCAD33DFBAF", 
            "modelId": "A1566"
        }, 
        {
            "formFactor": "PHONE", 
            "name": "Apple iPhone 8", 
            "remoteAccessEnabled": true, 
            "resolution": {
                "width": 750, 
                "height": 1334
            }, 
            "image": "1F7E40CA59B6467F9443943E14F93848", 
            "remoteDebugEnabled": false, 
            "fleetType": "PUBLIC", 
            "platform": "IOS", 
            "heapSize": 0, 
            "availability": "HIGHLY_AVAILABLE", 
            "memory": 64000000000, 
            "model": "iPhone 8", 
            "manufacturer": "Apple", 
            "os": "11.0.3", 
            "cpu": {
                "frequency": "Hz", 
                "architecture": "arm64", 
                "clock": 0.0
            }, 
            "arn": "arn:aws:devicefarm:us-west-2::device:1F7E40CA59B6467F9443943E14F93848", 
            "modelId": "A1863"
        }, 
        {
            "formFactor": "PHONE", 
            "name": "Apple iPhone 6 Plus", 
            "remoteAccessEnabled": false, 
            "resolution": {
                "width": 1080, 
                "height": 1920
            }, 
            "image": "191AC51E88114F1ABF219823023A9DE2", 
            "remoteDebugEnabled": false, 
            "fleetType": "PUBLIC", 
            "platform": "IOS", 
            "heapSize": 0, 
            "availability": "AVAILABLE", 
            "memory": 16000000000, 
            "model": "iPhone 6 Plus", 
            "manufacturer": "Apple", 
            "os": "11.0", 
            "cpu": {
                "frequency": "Hz", 
                "architecture": "arm64", 
                "clock": 0.0
            }, 
            "arn": "arn:aws:devicefarm:us-west-2::device:191AC51E88114F1ABF219823023A9DE2", 
            "modelId": "A1522"
        }, 
        {
            "formFactor": "TABLET", 
            "name": "Apple iPad Mini 2", 
            "remoteAccessEnabled": true, 
            "resolution": {
                "width": 1536, 
                "height": 2048
            }, 
            "image": "9D269585278D4A7B9792BC4AD092659D", 
            "remoteDebugEnabled": false, 
            "fleetType": "PUBLIC", 
            "platform": "IOS", 
            "heapSize": 0, 
            "availability": "AVAILABLE", 
            "memory": 16000000000, 
            "model": "iPad Mini 2", 
            "manufacturer": "Apple", 
            "os": "9.3.1", 
            "cpu": {
                "frequency": "Hz", 
                "architecture": "arm64", 
                "clock": 0.0
            }, 
            "arn": "arn:aws:devicefarm:us-west-2::device:9D269585278D4A7B9792BC4AD092659D", 
            "modelId": "A1489"
        }, 
        {
            "formFactor": "PHONE", 
            "name": "Apple iPhone 6s", 
            "remoteAccessEnabled": false, 
            "resolution": {
                "width": 750, 
                "height": 1334
            }, 
            "image": "9221EDC581AD4DE8BE88E28912BB9DB1", 
            "remoteDebugEnabled": false, 
            "fleetType": "PUBLIC", 
            "platform": "IOS", 
            "heapSize": 0, 
            "availability": "AVAILABLE", 
            "memory": 16000000000, 
            "model": "iPhone 6s", 
            "manufacturer": "Apple", 
            "os": "10.0.2", 
            "cpu": {
                "frequency": "Hz", 
                "architecture": "arm64", 
                "clock": 0.0
            }, 
            "arn": "arn:aws:devicefarm:us-west-2::device:9221EDC581AD4DE8BE88E28912BB9DB1", 
            "modelId": "A1633"
        }, 
        {
            "formFactor": "PHONE", 
            "name": "Apple iPhone 6s Plus", 
            "remoteAccessEnabled": false, 
            "resolution": {
                "width": 1080, 
                "height": 1920
            }, 
            "image": "E13E9CA4E1064CCD8E912317C9FA56DE", 
            "remoteDebugEnabled": false, 
            "fleetType": "PUBLIC", 
            "platform": "IOS", 
            "heapSize": 0, 
            "availability": "AVAILABLE", 
            "memory": 16000000000, 
            "model": "iPhone 6s Plus", 
            "manufacturer": "Apple", 
            "os": "10.0.2", 
            "cpu": {
                "frequency": "Hz", 
                "architecture": "arm64", 
                "clock": 0.0
            }, 
            "arn": "arn:aws:devicefarm:us-west-2::device:E13E9CA4E1064CCD8E912317C9FA56DE", 
            "modelId": "A1687"
        }, 
        {
            "formFactor": "PHONE", 
            "name": "Apple iPhone XS", 
            "remoteAccessEnabled": true, 
            "resolution": {
                "width": 1125, 
                "height": 2436
            }, 
            "image": "A490B12A656C49678A80B5B0F7D33FA1", 
            "remoteDebugEnabled": false, 
            "fleetType": "PUBLIC", 
            "platform": "IOS", 
            "heapSize": 0, 
            "availability": "HIGHLY_AVAILABLE", 
            "memory": 64000000000, 
            "model": "iPhone XS", 
            "manufacturer": "Apple", 
            "os": "12.0", 
            "cpu": {
                "frequency": "Hz", 
                "architecture": "arm64e", 
                "clock": 0.0
            }, 
            "arn": "arn:aws:devicefarm:us-west-2::device:A490B12A656C49678A80B5B0F7D33FA1", 
            "modelId": "{MTAG2,MTA22,MT8J2,MT942}"
        }, 
        {
            "formFactor": "TABLET", 
            "name": "Apple iPad Mini 2", 
            "remoteAccessEnabled": false, 
            "resolution": {
                "width": 1536, 
                "height": 2048
            }, 
            "image": "B9A6589D362D4CABBFBED7A9EF489288", 
            "remoteDebugEnabled": false, 
            "fleetType": "PUBLIC", 
            "platform": "IOS", 
            "heapSize": 0, 
            "availability": "HIGHLY_AVAILABLE", 
            "memory": 16000000000, 
            "model": "iPad Mini 2", 
            "manufacturer": "Apple", 
            "os": "10.2.1", 
            "cpu": {
                "frequency": "Hz", 
                "architecture": "arm64", 
                "clock": 0.0
            }, 
            "arn": "arn:aws:devicefarm:us-west-2::device:B9A6589D362D4CABBFBED7A9EF489288", 
            "modelId": "A1490"
        }, 
        {
            "formFactor": "PHONE", 
            "name": "Apple iPhone 6", 
            "remoteAccessEnabled": false, 
            "resolution": {
                "width": 750, 
                "height": 1334
            }, 
            "image": "7761DEC33E25457CB9497A09B07000A5", 
            "remoteDebugEnabled": false, 
            "fleetType": "PUBLIC", 
            "platform": "IOS", 
            "heapSize": 0, 
            "availability": "AVAILABLE", 
            "memory": 16000000000, 
            "model": "iPhone 6", 
            "manufacturer": "Apple", 
            "os": "10.3.3", 
            "cpu": {
                "frequency": "Hz", 
                "architecture": "arm64", 
                "clock": 0.0
            }, 
            "arn": "arn:aws:devicefarm:us-west-2::device:7761DEC33E25457CB9497A09B07000A5", 
            "modelId": "{A1549,MG3C2}"
        }, 
        {
            "formFactor": "TABLET", 
            "name": "Apple iPad Mini 1st Gen", 
            "remoteAccessEnabled": true, 
            "resolution": {
                "width": 768, 
                "height": 1024
            }, 
            "image": "5269B159B4DB41ED8126E3A1C764874D", 
            "remoteDebugEnabled": false, 
            "fleetType": "PUBLIC", 
            "platform": "IOS", 
            "heapSize": 0, 
            "availability": "HIGHLY_AVAILABLE", 
            "memory": 16000000000, 
            "model": "iPad Mini 1st Gen", 
            "manufacturer": "Apple", 
            "os": "9.3.5", 
            "cpu": {
                "frequency": "Hz", 
                "architecture": "armv7f", 
                "clock": 0.0
            }, 
            "arn": "arn:aws:devicefarm:us-west-2::device:5269B159B4DB41ED8126E3A1C764874D", 
            "modelId": "A1432"
        }, 
        {
            "formFactor": "PHONE", 
            "name": "Apple iPhone 6 Plus", 
            "remoteAccessEnabled": false, 
            "resolution": {
                "width": 1080, 
                "height": 1920
            }, 
            "image": "E84665C8C3794194A5B98C6F2A2CA6FE", 
            "remoteDebugEnabled": false, 
            "fleetType": "PUBLIC", 
            "platform": "IOS", 
            "heapSize": 0, 
            "availability": "AVAILABLE", 
            "memory": 16000000000, 
            "model": "iPhone 6 Plus", 
            "manufacturer": "Apple", 
            "os": "9.3", 
            "cpu": {
                "frequency": "Hz", 
                "architecture": "arm64", 
                "clock": 0.0
            }, 
            "arn": "arn:aws:devicefarm:us-west-2::device:E84665C8C3794194A5B98C6F2A2CA6FE", 
            "modelId": "A1522"
        }, 
        {
            "formFactor": "PHONE", 
            "name": "Apple iPhone 7 Plus", 
            "remoteAccessEnabled": false, 
            "resolution": {
                "width": 1080, 
                "height": 1920
            }, 
            "image": "5279F83FAF214C5C8711EA0757DD2D26", 
            "remoteDebugEnabled": false, 
            "fleetType": "PUBLIC", 
            "platform": "IOS", 
            "heapSize": 0, 
            "availability": "AVAILABLE", 
            "memory": 32000000000, 
            "model": "iPhone 7 Plus", 
            "manufacturer": "Apple", 
            "os": "10.1", 
            "cpu": {
                "frequency": "Hz", 
                "architecture": "arm64", 
                "clock": 0.0
            }, 
            "arn": "arn:aws:devicefarm:us-west-2::device:5279F83FAF214C5C8711EA0757DD2D26", 
            "modelId": "{A1661,MNR12}"
        }, 
        {
            "formFactor": "PHONE", 
            "name": "Apple iPhone 7 Plus", 
            "remoteAccessEnabled": false, 
            "resolution": {
                "width": 1080, 
                "height": 1920
            }, 
            "image": "51ED4AB875C543AC97E6F65F7473E7B8", 
            "remoteDebugEnabled": false, 
            "fleetType": "PUBLIC", 
            "platform": "IOS", 
            "heapSize": 0, 
            "availability": "HIGHLY_AVAILABLE", 
            "memory": 32000000000, 
            "model": "iPhone 7 Plus", 
            "manufacturer": "Apple", 
            "os": "12.0", 
            "cpu": {
                "frequency": "Hz", 
                "architecture": "arm64", 
                "clock": 0.0
            }, 
            "arn": "arn:aws:devicefarm:us-west-2::device:51ED4AB875C543AC97E6F65F7473E7B8", 
            "modelId": "{A1661,MNR12}"
        }, 
        {
            "formFactor": "TABLET", 
            "name": "Apple iPad Pro 9.7\"", 
            "remoteAccessEnabled": false, 
            "resolution": {
                "width": 1536, 
                "height": 2048
            }, 
            "image": "7E2C24A6F37947D4B98F2C43EEFC9A33", 
            "remoteDebugEnabled": false, 
            "fleetType": "PUBLIC", 
            "platform": "IOS", 
            "heapSize": 0, 
            "availability": "HIGHLY_AVAILABLE", 
            "memory": 32000000000, 
            "model": "iPad Pro 9.7\"", 
            "manufacturer": "Apple", 
            "os": "10.3.3", 
            "cpu": {
                "frequency": "Hz", 
                "architecture": "arm64", 
                "clock": 0.0
            }, 
            "arn": "arn:aws:devicefarm:us-west-2::device:7E2C24A6F37947D4B98F2C43EEFC9A33", 
            "modelId": "A1673"
        }, 
        {
            "formFactor": "TABLET", 
            "name": "Apple iPad Air 2", 
            "remoteAccessEnabled": false, 
            "resolution": {
                "width": 1536, 
                "height": 2048
            }, 
            "image": "50BF8817219449F4AE64657CB409A100", 
            "remoteDebugEnabled": false, 
            "fleetType": "PUBLIC", 
            "platform": "IOS", 
            "heapSize": 0, 
            "availability": "HIGHLY_AVAILABLE", 
            "memory": 16000000000, 
            "model": "iPad Air 2", 
            "manufacturer": "Apple", 
            "os": "10.3.3", 
            "cpu": {
                "frequency": "Hz", 
                "architecture": "arm64", 
                "clock": 0.0
            }, 
            "arn": "arn:aws:devicefarm:us-west-2::device:50BF8817219449F4AE64657CB409A100", 
            "modelId": "A1566"
        }, 
        {
            "formFactor": "PHONE", 
            "name": "Apple iPhone 11", 
            "remoteAccessEnabled": true, 
            "resolution": {
                "width": 828, 
                "height": 1792
            }, 
            "image": "8EFC9DF49F09451E831E93DA281DAF9F", 
            "remoteDebugEnabled": true, 
            "fleetType": "PUBLIC", 
            "platform": "IOS", 
            "heapSize": 0, 
            "availability": "HIGHLY_AVAILABLE", 
            "memory": 64000000000, 
            "model": "Apple iPhone 11", 
            "manufacturer": "Apple", 
            "os": "13.1.3", 
            "cpu": {
                "frequency": "Hz", 
                "architecture": "arm64e", 
                "clock": 0.0
            }, 
            "arn": "arn:aws:devicefarm:us-west-2::device:8EFC9DF49F09451E831E93DA281DAF9F", 
            "modelId": "MWL72LL/A"
        }, 
        {
            "formFactor": "TABLET", 
            "name": "Apple iPad Mini 2", 
            "remoteAccessEnabled": false, 
            "resolution": {
                "width": 1536, 
                "height": 2048
            }, 
            "image": "BC21704C116F448F9149B0F082C98E31", 
            "remoteDebugEnabled": false, 
            "fleetType": "PUBLIC", 
            "platform": "IOS", 
            "heapSize": 0, 
            "availability": "HIGHLY_AVAILABLE", 
            "memory": 16000000000, 
            "model": "iPad Mini 2", 
            "manufacturer": "Apple", 
            "os": "10.3.1", 
            "cpu": {
                "frequency": "Hz", 
                "architecture": "arm64", 
                "clock": 0.0
            }, 
            "arn": "arn:aws:devicefarm:us-west-2::device:BC21704C116F448F9149B0F082C98E31", 
            "modelId": "A1489"
        }, 
        {
            "formFactor": "PHONE", 
            "name": "Apple iPhone 11 Pro", 
            "remoteAccessEnabled": true, 
            "resolution": {
                "width": 1125, 
                "height": 2436
            }, 
            "image": "FB7DB406870A445A90958D233DF789BC", 
            "remoteDebugEnabled": false, 
            "fleetType": "PUBLIC", 
            "platform": "IOS", 
            "heapSize": 0, 
            "availability": "HIGHLY_AVAILABLE", 
            "memory": 64000000000, 
            "model": "Apple iPhone 11 Pro", 
            "manufacturer": "Apple", 
            "os": "13.1.3", 
            "cpu": {
                "frequency": "Hz", 
                "architecture": "arm64e", 
                "clock": 0.0
            }, 
            "arn": "arn:aws:devicefarm:us-west-2::device:FB7DB406870A445A90958D233DF789BC", 
            "modelId": "MWCH2LL/A"
        }, 
        {
            "formFactor": "TABLET", 
            "name": "Apple iPad Air 2", 
            "remoteAccessEnabled": false, 
            "resolution": {
                "width": 1536, 
                "height": 2048
            }, 
            "image": "71BE1970800548EFBFCD5AD9C29F9ACF", 
            "remoteDebugEnabled": false, 
            "fleetType": "PUBLIC", 
            "platform": "IOS", 
            "heapSize": 0, 
            "availability": "HIGHLY_AVAILABLE", 
            "memory": 16000000000, 
            "model": "iPad Air 2", 
            "manufacturer": "Apple", 
            "os": "10.3.1", 
            "cpu": {
                "frequency": "Hz", 
                "architecture": "arm64", 
                "clock": 0.0
            }, 
            "arn": "arn:aws:devicefarm:us-west-2::device:71BE1970800548EFBFCD5AD9C29F9ACF", 
            "modelId": "A1566"
        }, 
        {
            "formFactor": "PHONE", 
            "name": "Apple iPhone 7 Plus", 
            "remoteAccessEnabled": false, 
            "resolution": {
                "width": 1080, 
                "height": 1920
            }, 
            "image": "8F22F9E2920A40A5A4453AFB3DDA813C", 
            "remoteDebugEnabled": false, 
            "fleetType": "PUBLIC", 
            "platform": "IOS", 
            "heapSize": 0, 
            "availability": "AVAILABLE", 
            "memory": 32000000000, 
            "model": "iPhone 7 Plus", 
            "manufacturer": "Apple", 
            "os": "10.0.2", 
            "cpu": {
                "frequency": "Hz", 
                "architecture": "arm64", 
                "clock": 0.0
            }, 
            "arn": "arn:aws:devicefarm:us-west-2::device:8F22F9E2920A40A5A4453AFB3DDA813C", 
            "modelId": "A1784"
        }, 
        {
            "formFactor": "PHONE", 
            "name": "Apple iPhone 6", 
            "remoteAccessEnabled": false, 
            "resolution": {
                "width": 750, 
                "height": 1334
            }, 
            "image": "DEF59787B7DA4048BB349184DA1B6D42", 
            "remoteDebugEnabled": false, 
            "fleetType": "PUBLIC", 
            "platform": "IOS", 
            "heapSize": 0, 
            "availability": "HIGHLY_AVAILABLE", 
            "memory": 16000000000, 
            "model": "iPhone 6", 
            "manufacturer": "Apple", 
            "os": "9.3.1", 
            "cpu": {
                "frequency": "Hz", 
                "architecture": "arm64", 
                "clock": 0.0
            }, 
            "arn": "arn:aws:devicefarm:us-west-2::device:DEF59787B7DA4048BB349184DA1B6D42", 
            "modelId": "A1549"
        }, 
        {
            "formFactor": "PHONE", 
            "name": "Apple iPhone 6", 
            "remoteAccessEnabled": false, 
            "resolution": {
                "width": 750, 
                "height": 1334
            }, 
            "image": "739DC76DC3A14B8DB0DC96E4092F4318", 
            "remoteDebugEnabled": false, 
            "fleetType": "PUBLIC", 
            "platform": "IOS", 
            "heapSize": 0, 
            "availability": "AVAILABLE", 
            "memory": 16000000000, 
            "model": "iPhone 6", 
            "manufacturer": "Apple", 
            "os": "10.2", 
            "cpu": {
                "frequency": "Hz", 
                "architecture": "arm64", 
                "clock": 0.0
            }, 
            "arn": "arn:aws:devicefarm:us-west-2::device:739DC76DC3A14B8DB0DC96E4092F4318", 
            "modelId": "{A1549,MG3C2}"
        }, 
        {
            "formFactor": "PHONE", 
            "name": "Apple iPhone 6", 
            "remoteAccessEnabled": true, 
            "resolution": {
                "width": 750, 
                "height": 1334
            }, 
            "image": "9C236F5665C1466BB717C2517ACC3FE2", 
            "remoteDebugEnabled": false, 
            "fleetType": "PUBLIC", 
            "platform": "IOS", 
            "heapSize": 0, 
            "availability": "HIGHLY_AVAILABLE", 
            "memory": 16000000000, 
            "model": "iPhone 6", 
            "manufacturer": "Apple", 
            "os": "11.4.1", 
            "cpu": {
                "frequency": "Hz", 
                "architecture": "arm64", 
                "clock": 0.0
            }, 
            "arn": "arn:aws:devicefarm:us-west-2::device:9C236F5665C1466BB717C2517ACC3FE2", 
            "modelId": "{A1549,MG3C2}"
        }, 
        {
            "formFactor": "PHONE", 
            "name": "Apple iPhone 8 Plus", 
            "remoteAccessEnabled": false, 
            "resolution": {
                "width": 1080, 
                "height": 1920
            }, 
            "image": "DEC41B3B48534980BC5B0432E2D34CA7", 
            "remoteDebugEnabled": false, 
            "fleetType": "PUBLIC", 
            "platform": "IOS", 
            "heapSize": 0, 
            "availability": "HIGHLY_AVAILABLE", 
            "memory": 64000000000, 
            "model": "iPhone 8 Plus", 
            "manufacturer": "Apple", 
            "os": "11.0", 
            "cpu": {
                "frequency": "Hz", 
                "architecture": "arm64", 
                "clock": 0.0
            }, 
            "arn": "arn:aws:devicefarm:us-west-2::device:DEC41B3B48534980BC5B0432E2D34CA7", 
            "modelId": "A1864"
        }, 
        {
            "formFactor": "PHONE", 
            "name": "Apple iPhone 4S", 
            "remoteAccessEnabled": true, 
            "resolution": {
                "width": 640, 
                "height": 960
            }, 
            "image": "CD4BFBB93109479A8740C768A6681ACD", 
            "remoteDebugEnabled": false, 
            "fleetType": "PUBLIC", 
            "platform": "IOS", 
            "heapSize": 0, 
            "availability": "HIGHLY_AVAILABLE", 
            "memory": 32000000000, 
            "model": "iPhone 4S", 
            "manufacturer": "Apple", 
            "os": "9.3.5", 
            "cpu": {
                "frequency": "Hz", 
                "architecture": "armv7f", 
                "clock": 0.0
            }, 
            "arn": "arn:aws:devicefarm:us-west-2::device:CD4BFBB93109479A8740C768A6681ACD", 
            "modelId": "A1387"
        }, 
        {
            "formFactor": "PHONE", 
            "name": "Apple iPhone 6 Plus", 
            "remoteAccessEnabled": false, 
            "resolution": {
                "width": 1080, 
                "height": 1920
            }, 
            "image": "106BFEE3D054431AB080AC7A75C4B667", 
            "remoteDebugEnabled": false, 
            "fleetType": "PUBLIC", 
            "platform": "IOS", 
            "heapSize": 0, 
            "availability": "AVAILABLE", 
            "memory": 16000000000, 
            "model": "iPhone 6 Plus", 
            "manufacturer": "Apple", 
            "os": "9.1", 
            "cpu": {
                "frequency": "Hz", 
                "architecture": "arm64", 
                "clock": 0.0
            }, 
            "arn": "arn:aws:devicefarm:us-west-2::device:106BFEE3D054431AB080AC7A75C4B667", 
            "modelId": "A1522"
        }, 
        {
            "formFactor": "TABLET", 
            "name": "Apple iPad Pro 12.9\"", 
            "remoteAccessEnabled": false, 
            "resolution": {
                "width": 2048, 
                "height": 2732
            }, 
            "image": "21BF4C866E704984B2BEB79F810A1E78", 
            "remoteDebugEnabled": false, 
            "fleetType": "PUBLIC", 
            "platform": "IOS", 
            "heapSize": 0, 
            "availability": "BUSY", 
            "memory": 64000000000, 
            "model": "Apple iPad Pro 12.9\"", 
            "manufacturer": "Apple", 
            "os": "12.1.4", 
            "cpu": {
                "frequency": "Hz", 
                "architecture": "arm64e", 
                "clock": 0.0
            }, 
            "arn": "arn:aws:devicefarm:us-west-2::device:21BF4C866E704984B2BEB79F810A1E78", 
            "modelId": "MTEL2LL/A"
        }, 
        {
            "formFactor": "PHONE", 
            "name": "Apple iPhone 5s", 
            "remoteAccessEnabled": false, 
            "resolution": {
                "width": 640, 
                "height": 1136
            }, 
            "image": "7FA07BF1E862450D8947E48F49B9E734", 
            "remoteDebugEnabled": false, 
            "fleetType": "PUBLIC", 
            "platform": "IOS", 
            "heapSize": 0, 
            "availability": "HIGHLY_AVAILABLE", 
            "memory": 16000000000, 
            "model": "iPhone 5s", 
            "manufacturer": "Apple", 
            "os": "10.2.1", 
            "cpu": {
                "frequency": "Hz", 
                "architecture": "arm64", 
                "clock": 0.0
            }, 
            "arn": "arn:aws:devicefarm:us-west-2::device:7FA07BF1E862450D8947E48F49B9E734", 
            "modelId": "A1533"
        }, 
        {
            "formFactor": "PHONE", 
            "name": "Apple iPhone X", 
            "remoteAccessEnabled": false, 
            "resolution": {
                "width": 1125, 
                "height": 2436
            }, 
            "image": "5F1B162C265B4F34804B7D0DC2CDBE40", 
            "remoteDebugEnabled": false, 
            "fleetType": "PUBLIC", 
            "platform": "IOS", 
            "heapSize": 0, 
            "availability": "HIGHLY_AVAILABLE", 
            "memory": 256000000000, 
            "model": "iPhone X", 
            "manufacturer": "Apple", 
            "os": "11.4", 
            "cpu": {
                "frequency": "Hz", 
                "architecture": "arm64", 
                "clock": 0.0
            }, 
            "arn": "arn:aws:devicefarm:us-west-2::device:5F1B162C265B4F34804B7D0DC2CDBE40", 
            "modelId": "A1865"
        }, 
        {
            "formFactor": "PHONE", 
            "name": "Apple iPhone XR", 
            "remoteAccessEnabled": false, 
            "resolution": {
                "width": 828, 
                "height": 1792
            }, 
            "image": "B5D4C9845DEA4EEB994FB44F572E0B5C", 
            "remoteDebugEnabled": false, 
            "fleetType": "PUBLIC", 
            "platform": "IOS", 
            "heapSize": 0, 
            "availability": "HIGHLY_AVAILABLE", 
            "memory": 64000000000, 
            "model": "Apple iPhone XR", 
            "manufacturer": "Apple", 
            "os": "12.4.1", 
            "cpu": {
                "frequency": "Hz", 
                "architecture": "arm64e", 
                "clock": 0.0
            }, 
            "arn": "arn:aws:devicefarm:us-west-2::device:B5D4C9845DEA4EEB994FB44F572E0B5C", 
            "modelId": "MRYR2LL/A"
        }, 
        {
            "formFactor": "TABLET", 
            "name": "Apple iPad Pro 11\"", 
            "remoteAccessEnabled": true, 
            "resolution": {
                "width": 1668, 
                "height": 2388
            }, 
            "image": "743DB7FDB5024380B7CC7E0A9835E0D7", 
            "remoteDebugEnabled": false, 
            "fleetType": "PUBLIC", 
            "platform": "IOS", 
            "heapSize": 0, 
            "availability": "HIGHLY_AVAILABLE", 
            "memory": 64000000000, 
            "model": "Apple iPad Pro (Late 2018)", 
            "manufacturer": "Apple", 
            "os": "12.1", 
            "cpu": {
                "frequency": "Hz", 
                "architecture": "arm64e", 
                "clock": 0.0
            }, 
            "arn": "arn:aws:devicefarm:us-west-2::device:743DB7FDB5024380B7CC7E0A9835E0D7", 
            "modelId": "MTXN2"
        }, 
        {
            "formFactor": "PHONE", 
            "name": "Apple iPhone 6 Plus", 
            "remoteAccessEnabled": false, 
            "resolution": {
                "width": 1080, 
                "height": 1920
            }, 
            "image": "AD798AD09491442C81B739C81F5C0EBB", 
            "remoteDebugEnabled": false, 
            "fleetType": "PUBLIC", 
            "platform": "IOS", 
            "heapSize": 0, 
            "availability": "AVAILABLE", 
            "memory": 16000000000, 
            "model": "iPhone 6 Plus", 
            "manufacturer": "Apple", 
            "os": "9.3.1", 
            "cpu": {
                "frequency": "Hz", 
                "architecture": "arm64", 
                "clock": 0.0
            }, 
            "arn": "arn:aws:devicefarm:us-west-2::device:AD798AD09491442C81B739C81F5C0EBB", 
            "modelId": "A1522"
        }, 
        {
            "formFactor": "TABLET", 
            "name": "Apple iPad 5th Generation", 
            "remoteAccessEnabled": false, 
            "resolution": {
                "width": 1536, 
                "height": 2048
            }, 
            "image": "B494940EA8AA4DA4B4DC45CE4E47D760", 
            "remoteDebugEnabled": false, 
            "fleetType": "PUBLIC", 
            "platform": "IOS", 
            "heapSize": 0, 
            "availability": "HIGHLY_AVAILABLE", 
            "memory": 32000000000, 
            "model": "iPad 5th Gen", 
            "manufacturer": "Apple", 
            "os": "10.3.2", 
            "cpu": {
                "frequency": "Hz", 
                "architecture": "arm64", 
                "clock": 0.0
            }, 
            "arn": "arn:aws:devicefarm:us-west-2::device:B494940EA8AA4DA4B4DC45CE4E47D760", 
            "modelId": "A1822"
        }, 
        {
            "formFactor": "PHONE", 
            "name": "Apple iPhone 6s Plus", 
            "remoteAccessEnabled": false, 
            "resolution": {
                "width": 1080, 
                "height": 1920
            }, 
            "image": "51126D8F587446CD853FD186AF9136A4", 
            "remoteDebugEnabled": false, 
            "fleetType": "PUBLIC", 
            "platform": "IOS", 
            "heapSize": 0, 
            "availability": "AVAILABLE", 
            "memory": 16000000000, 
            "model": "iPhone 6s Plus", 
            "manufacturer": "Apple", 
            "os": "10.1", 
            "cpu": {
                "frequency": "Hz", 
                "architecture": "arm64", 
                "clock": 0.0
            }, 
            "arn": "arn:aws:devicefarm:us-west-2::device:51126D8F587446CD853FD186AF9136A4", 
            "modelId": "A1687"
        }, 
        {
            "formFactor": "TABLET", 
            "name": "Apple iPad Air", 
            "remoteAccessEnabled": false, 
            "resolution": {
                "width": 1536, 
                "height": 2048
            }, 
            "image": "BE2FF8C89C484BFEA7433FDCF069A026", 
            "remoteDebugEnabled": false, 
            "fleetType": "PUBLIC", 
            "platform": "IOS", 
            "heapSize": 0, 
            "availability": "HIGHLY_AVAILABLE", 
            "memory": 16000000000, 
            "model": "iPad Air", 
            "manufacturer": "Apple", 
            "os": "10.2.1", 
            "cpu": {
                "frequency": "Hz", 
                "architecture": "arm64", 
                "clock": 0.0
            }, 
            "arn": "arn:aws:devicefarm:us-west-2::device:BE2FF8C89C484BFEA7433FDCF069A026", 
            "modelId": "A1474"
        }, 
        {
            "formFactor": "TABLET", 
            "name": "Apple iPad Mini 3", 
            "remoteAccessEnabled": false, 
            "resolution": {
                "width": 1536, 
                "height": 2048
            }, 
            "image": "F401B128ACC446678E6904AA5B9FCE93", 
            "remoteDebugEnabled": false, 
            "fleetType": "PUBLIC", 
            "platform": "IOS", 
            "heapSize": 0, 
            "availability": "AVAILABLE", 
            "memory": 64000000000, 
            "model": "iPad Mini 3", 
            "manufacturer": "Apple", 
            "os": "10.3.3", 
            "cpu": {
                "frequency": "Hz", 
                "architecture": "arm64", 
                "clock": 0.0
            }, 
            "arn": "arn:aws:devicefarm:us-west-2::device:F401B128ACC446678E6904AA5B9FCE93", 
            "modelId": "A1599"
        }
    ]
}
