{
    "version": 0,
    "kind": "WHITELIST",
    "appVersion_3.0.0": {
        "acceptableHardware": [ "iPhone4,1", "iPhone5,1", "iPhone5,2", "iPhone5,3", "iPhone5,4", "iPhone6,1", "iPhone6,2", "iPhone7,2", "iPhone7,1", "iPhone8,1", "iPhone8,2", "iPhone8,4", "iPhone9,1", "iPhone9,2", "iPhone9,3", "iPhone9,4", "iPod5,1", "iPod7,1", "iPad2,5", "iPad2,6", "iPad2,7", "iPad3,1", "iPad3,2", "iPad3,3", "iPad3,4", "iPad3,5", "iPad3,6", "iPad4,1", "iPad4,2", "iPad4,3", "iPad4,4", "iPad4,5", "iPad4,6", "iPad4,7", "iPad4,8", "iPad4,9", "iPad5,1", "iPad5,2", "iPad5,3", "iPad5,4", "iPad6,3", "iPad6,4", "iPad6,7", "iPad6,8" ],
        "acceptableOS": [ "9.0", "9.0.1", "9.0.2", "9.1", "9.2", "9.2.1", "9.3", "9.3.1", "9.3.2", "9.3.3", "9.3.4", "9.3.5", "10.0", "10.0.1", "10.0.2", "10.0.3", "10.1", "10.1.1", "10.2", "10.2.1", "10.3" ]
    },
    "appVersion_3.0.1": {
        "acceptableHardware": [ "iPhone4,1", "iPhone5,1", "iPhone5,2", "iPhone5,3", "iPhone5,4", "iPhone6,1", "iPhone6,2", "iPhone7,2", "iPhone7,1", "iPhone8,1", "iPhone8,2", "iPhone8,4", "iPhone9,1", "iPhone9,2", "iPhone9,3", "iPhone9,4", "iPhone10,1", "iPhone10,2", "iPhone10,3", "iPhone10,4", "iPhone10,5", "iPhone10,6", "iPod5,1", "iPod7,1", "iPad2,5", "iPad2,6", "iPad2,7", "iPad3,1", "iPad3,2", "iPad3,3", "iPad3,4", "iPad3,5", "iPad3,6", "iPad4,1", "iPad4,2", "iPad4,3", "iPad4,4", "iPad4,5", "iPad4,6", "iPad4,7", "iPad4,8", "iPad4,9", "iPad5,1", "iPad5,2", "iPad5,3", "iPad5,4", "iPad6,3", "iPad6,4", "iPad6,7", "iPad6,8" ],
        "acceptableOS": [ "9.0", "9.0.1", "9.0.2", "9.1", "9.2", "9.2.1", "9.3", "9.3.1", "9.3.2", "9.3.3", "9.3.4", "9.3.5", "10.0", "10.0.1", "10.0.2", "10.0.3", "10.1", "10.1.1", "10.2", "10.2.1", "10.3", "10.3.1", "10.3.2", "10.3.3", "11.0", "11.0.1", "11.0.2", "11.0.3", "11.1", "11.1.1", "11.1.2", "11.2", "11.2.1", "11.2.2", "11.2.5", "11.2.6", "11.3" ]
    },
    "appVersion_3.2.0": {
        "acceptableHardware": [ "iPhone5,1", "iPhone5,2", "iPhone5,3", "iPhone5,4", "iPhone6,1", "iPhone6,2", "iPhone7,2", "iPhone7,1", "iPhone8,1", "iPhone8,2", "iPhone8,4", "iPhone9,1", "iPhone9,2", "iPhone9,3", "iPhone9,4", "iPhone10,1", "iPhone10,2", "iPhone10,3", "iPhone10,4", "iPhone10,5", "iPhone10,6", "iPod7,1", "iPad3,4", "iPad3,5", "iPad3,6", "iPad4,1", "iPad4,2", "iPad4,3", "iPad4,4", "iPad4,5", "iPad4,6", "iPad4,7", "iPad4,8", "iPad4,9", "iPad5,1", "iPad5,2", "iPad5,3", "iPad5,4", "iPad6,3", "iPad6,4", "iPad6,7", "iPad6,8", "iPad6,11", "iPad6,12", "iPad7,1", "iPad7,2", "iPad7,3", "iPad7,4" ],
        "acceptableOS": [ "10.3", "10.3.1", "10.3.2", "10.3.3", "11.0", "11.0.1", "11.0.2", "11.0.3", "11.1", "11.1.1", "11.1.2", "11.2", "11.2.1", "11.2.2", "11.2.5", "11.2.6", "11.3" ]
    },
    "appVersion_3.2.1": {
        "acceptableHardware": [ "iPhone5,1", "iPhone5,2", "iPhone5,3", "iPhone5,4", "iPhone6,1", "iPhone6,2", "iPhone7,2", "iPhone7,1", "iPhone8,1", "iPhone8,2", "iPhone8,4", "iPhone9,1", "iPhone9,2", "iPhone9,3", "iPhone9,4", "iPhone10,1", "iPhone10,2", "iPhone10,3", "iPhone10,4", "iPhone10,5", "iPhone10,6", "iPod7,1", "iPad3,4", "iPad3,5", "iPad3,6", "iPad4,1", "iPad4,2", "iPad4,3", "iPad4,4", "iPad4,5", "iPad4,6", "iPad4,7", "iPad4,8", "iPad4,9", "iPad5,1", "iPad5,2", "iPad5,3", "iPad5,4", "iPad6,3", "iPad6,4", "iPad6,7", "iPad6,8", "iPad6,11", "iPad6,12", "iPad7,1", "iPad7,2", "iPad7,3", "iPad7,4", "iPad7,5", "iPad7,6" ],
        "acceptableOS": [ "10.3", "10.3.1", "10.3.2", "10.3.3", "11.0", "11.0.1", "11.0.2", "11.0.3", "11.1", "11.1.1", "11.1.2", "11.2", "11.2.1", "11.2.2", "11.2.5", "11.2.6", "11.3", "11.3.1", "11.4" ]
    },
    "appVersion_3.2.2": {
        "acceptableHardware": [ "iPhone5,1", "iPhone5,2", "iPhone5,3", "iPhone5,4", "iPhone6,1", "iPhone6,2", "iPhone7,2", "iPhone7,1", "iPhone8,1", "iPhone8,2", "iPhone8,4", "iPhone9,1", "iPhone9,2", "iPhone9,3", "iPhone9,4", "iPhone10,1", "iPhone10,2", "iPhone10,3", "iPhone10,4", "iPhone10,5", "iPhone10,6", "iPod7,1", "iPad3,4", "iPad3,5", "iPad3,6", "iPad4,1", "iPad4,2", "iPad4,3", "iPad4,4", "iPad4,5", "iPad4,6", "iPad4,7", "iPad4,8", "iPad4,9", "iPad5,1", "iPad5,2", "iPad5,3", "iPad5,4", "iPad6,3", "iPad6,4", "iPad6,7", "iPad6,8", "iPad6,11", "iPad6,12", "iPad7,1", "iPad7,2", "iPad7,3", "iPad7,4", "iPad7,5", "iPad7,6" ],
        "acceptableOS": [ "10.3", "10.3.1", "10.3.2", "10.3.3", "11.0", "11.0.1", "11.0.2", "11.0.3", "11.1", "11.1.1", "11.1.2", "11.2", "11.2.1", "11.2.2", "11.2.5", "11.2.6", "11.3", "11.3.1", "11.4" ]
    },
    "appVersion_3.2.3": {
        "acceptableHardware": [ "iPhone6,1", "iPhone6,2", "iPhone7,2", "iPhone7,1", "iPhone8,1", "iPhone8,2", "iPhone8,4", "iPhone9,1", "iPhone9,2", "iPhone9,3", "iPhone9,4", "iPhone10,1", "iPhone10,2", "iPhone10,3", "iPhone10,4", "iPhone10,5", "iPhone10,6", "iPhone11,2", "iPhone11,4", "iPhone11,6", "iPhone11,8", "iPod7,1", "iPad4,1", "iPad4,2", "iPad4,3", "iPad4,4", "iPad4,5", "iPad4,6", "iPad4,7", "iPad4,8", "iPad4,9", "iPad5,1", "iPad5,2", "iPad5,3", "iPad5,4", "iPad6,3", "iPad6,4", "iPad6,7", "iPad6,8", "iPad6,11", "iPad6,12", "iPad7,1", "iPad7,2", "iPad7,3", "iPad7,4", "iPad7,5", "iPad7,6" ],
        "acceptableOS": [ "11.4", "11.4.1", "12.0", "12.1", "12.1.1", "12.1.2" ]
    },
    "appVersion_3.2.4": {
        "acceptableHardware": [ "iPhone6,1", "iPhone6,2", "iPhone7,2", "iPhone7,1", "iPhone8,1", "iPhone8,2", "iPhone8,4", "iPhone9,1", "iPhone9,2", "iPhone9,3", "iPhone9,4", "iPhone10,1", "iPhone10,2", "iPhone10,3", "iPhone10,4", "iPhone10,5", "iPhone10,6", "iPhone11,2", "iPhone11,4", "iPhone11,6", "iPhone11,8", "iPhone12,1", "iPhone12,3", "iPhone12,5", "iPod7,1", "iPod9,1", "iPad4,1", "iPad4,2", "iPad4,3", "iPad4,4", "iPad4,5", "iPad4,6", "iPad4,7", "iPad4,8", "iPad4,9", "iPad5,1", "iPad5,2", "iPad5,3", "iPad5,4", "iPad6,3", "iPad6,4", "iPad6,7", "iPad6,8", "iPad6,11", "iPad6,12", "iPad7,1", "iPad7,2", "iPad7,3", "iPad7,4", "iPad7,5", "iPad7,6" ],
        "acceptableOS": [ "11.4", "11.4.1", "12.0", "12.1", "12.1.1", "12.1.2", "12.2", "12.3", "12.4", "13.0", "13.1", "13.2", "13.3", "13,4" ]
    },
    "appVersion_3.2.5": {
          "acceptableHardware": [ "iPhone6,1", "iPhone6,2", "iPhone7,2", "iPhone7,1", "iPhone8,1", "iPhone8,2", "iPhone8,4", "iPhone9,1", "iPhone9,2", "iPhone9,3", "iPhone9,4", "iPhone10,1", "iPhone10,2", "iPhone10,3", "iPhone10,4", "iPhone10,5", "iPhone10,6", "iPhone11,2", "iPhone11,4", "iPhone11,6", "iPhone11,8", "iPhone12,1", "iPhone12,3", "iPhone12,5", "iPod7,1", "iPod9,1", "iPad4,1", "iPad4,2", "iPad4,3", "iPad4,4", "iPad4,5", "iPad4,6", "iPad4,7", "iPad4,8", "iPad4,9", "iPad5,1", "iPad5,2", "iPad5,3", "iPad5,4", "iPad6,3", "iPad6,4", "iPad6,7", "iPad6,8", "iPad6,11", "iPad6,12", "iPad7,1", "iPad7,2", "iPad7,3", "iPad7,4", "iPad7,5", "iPad7,6" ],
          "acceptableOS": [ "11.4", "11.4.1", "12.0", "12.1", "12.1.1", "12.1.2", "12.2", "12.3", "12.4", "13.0", "13.1", "13.2", "13.3", "13.4" ]
    },
    "appVersion_4.1.0": {
        "na": [],
        "supported": {
            "hardware": [ "iPhone6,1", "iPhone6,2", "iPhone7,2", "iPhone7,1", "iPhone8,1", "iPhone8,2", "iPhone8,4", "iPhone9,1", "iPhone9,2", "iPhone9,3", "iPhone9,4", "iPhone10,1", "iPhone10,2", "iPhone10,3", "iPhone10,4", "iPhone10,5", "iPhone10,6", "iPhone11,2", "iPhone11,4", "iPhone11,6", "iPhone11,8", "iPhone12,1", "iPhone12,3", "iPhone12,5", "iPod7,1", "iPod9,1", "iPad4,1", "iPad4,2", "iPad4,3", "iPad4,4", "iPad4,5", "iPad4,6", "iPad4,7", "iPad4,8", "iPad4,9", "iPad5,1", "iPad5,2", "iPad5,3", "iPad5,4", "iPad6,3", "iPad6,4", "iPad6,7", "iPad6,8", "iPad6,11", "iPad6,12", "iPad7,1", "iPad7,2", "iPad7,3", "iPad7,4", "iPad7,5", "iPad7,6", "iPad8,5", "iPad11,1" ],
            "os": [ "11.4", "11.4.1", "12.0", "12.1", "12.1.1", "12.1.2", "12.2", "12.3", "12.4", "13.0", "13.1", "13.2", "13.3", "13.4" ],
            "specific" : {
            }
        },
        "unsupported" : {
            "hardware": [],
            "os": [],
            "specific" : {
            }
        }
    }
}
